Data science at 2DII: r2dii.data 0.1.6, r2dii.match 0.0.7 and r2dii.analysis 0.1.3 are now on CRAN
…
r2dii.match 0.0.7

The only user-facing change to r2dii.match was that match_name() gained the argument ... to pass arguments to stringdist::stringsim(). Most users wont need this feature:

matched <- match_name(loanbook_demo, ald_demo)

matched %>% 
  filter(score != 1) %>% 
  select(name, name_ald, score)

#> # A tibble: 30 x 3
#>    name                         name_ald                         score
#>    <chr>                        <chr>                            <dbl>
#>  1 Yuama Inc.                   ykk usa, inc.                    0.843
#>  2 Yukon Energy Corp 1736       yukon development corp           0.813
#>  3 Yuanbsaoshan Power Generati aba hydropower generation co ltd 0.809
#>  4 Yuanbsaoshan Power Generati yiyang baoyuan power generation 0.849
#>  5 Bhushan Energy Ltd.          bhagwan energy ltd.              0.906
#>  6 York Research Corporation    yorkshire windpower limited      0.810
#>  7 York Research Corporation    yorkshire water services ltd     0.815
#>  8 York Research Corporation    york cogeneration corporation    0.832
#>  9 Yolo Regional District       yolo county                      0.81 
#> 10 Yit Corporation              international finance corp       0.804
#> #  with 20 more rows
…
